Statistical inference in the tidyverse framework: the Infer package
…
- Data from a cohort study (Adler & al, 2017,  Comorbidities and Subgroups of Patients Surviving Severe Acute Hypercapnic Respiratory Failure in the Intensive Care Unit, AJRCCM)

- Seventy-eight ICU patients admitted for an episode of acute hypercapnic respiratory failure

- Follow-up over 1 year

- Outcome of interest: readmission or death

---

## Motivating example

```
# A tibble: 45 x 9
   mnpaid    Age Gender Height Weight  FEV1 COPD  Event PaCO2_adm_SI
   <chr>   <dbl>  <dbl>  <dbl>  <dbl> <dbl> <chr> <chr>        <dbl>
 1 ARC-001  63.0      1    175    124  2.09 yes   yes            7.8
 2 ARC-002  73.0      1    157     61  1.13 no    no            10.6
 3 ARC-003  77.5      1    179     82  1.08 yes   yes            8.2
 4 ARC-004  82.1      1    173     92  1.09 no    no             7.9
 5 ARC-007  71.0      2    147     71  1.34 yes   no             7.4
 6 ARC-008  55.3      1    180     47  1.27 no    yes            7.8
 7 ARC-009  67.2      2    152    112  1.47 yes   yes            8.8
 8 ARC-011  73.1      2    145     56  0.33 yes   no             6.8
 9 ARC-012  65.3      1    176    150  1.43 yes   yes            8.6
10 ARC-013  77.1      2    165    120  1.45 no    no             9.4
# … with 35 more rows
```
…
```r
chisq.test(perm1$COPD, perm1$Event)$statistic
```

```
X-squared 
0.2208534 
```

---

### Distribution of the test statistic obtained with 5000 permutations

```
# A tibble: 5,000 x 2
   replicate     stat
       <int>    <dbl>
 1         1 2.53e-31
 2         2 7.62e- 1
 3         3 2.21e- 1
 4         4 2.53e-31
 5         5 4.06e- 2
 6         6 2.21e- 1
 7         7 3.29e+ 0
 8         8 2.53e-31
 9         9 3.29e+ 0
10        10 2.21e- 1
# … with 4,990 more rows
```
…
class: middle

## Association between COPD and death or readmission

```r
BDD_ajrccm %>% 
  specify(Event ~ COPD, success = "yes") %>% 
  hypothesize(null = "independence") %>% 
  generate(reps = 1000, type = "permute") %>% 
  calculate(stat = "Chisq", order = c("yes", "no"))
```

```
# A tibble: 1,000 x 2
   replicate     stat
       <int>    <dbl>
 1         1 2.21e- 1
 2         2 2.21e- 1
 3         3 2.53e-31
 4         4 6.17e+ 0
 5         5 2.53e-31
 6         6 4.06e- 2
 7         7 1.30e+ 0
 8         8 2.21e- 1
 9         9 2.21e- 1
10        10 2.21e- 1
# … with 990 more rows
```
…
```r
(bootstrap_distribution <-  BDD_ajrccm %>% 
  specify(FEV1 ~ Event) %>% 
  generate(reps = 1000, type = "bootstrap") %>% 
  calculate(stat = "diff in means", order = c("yes", "no")))
```

```
# A tibble: 1,000 x 2
   replicate     stat
       <int>    <dbl>
 1         1 -0.175  
 2         2  0.154  
 3         3  0.188  
 4         4  0.0715 
 5         5 -0.0162 
 6         6  0.00315
 7         7  0.0930 
 8         8  0.181  
 9         9  0.196  
10        10  0.0967 
# … with 990 more rows
```
…
